"connectorType","11/26/19 11:35 PM"
"connectorType","connectorClass","connectorName","connectorClassName","provClassName","extractorClassName"
"RadiantoneFIDConnector","RadiantoneFIDConnector","RadiantoneFIDConnector","com.alnt.connector.provisioning.services.RadiantoneFIDConnectionInterface","com.alnt.connector.provisioning.services.RadiantoneFIDConnectionInterface","com.alnt.connector.provisioning.services.RadiantoneFIDConnectionInterface"
