"sysParamOption","11/26/19 11:35 PM"
"label","name","createdBy","creationDate","lastUpdateDate","lastUpdatedBy","sysParam.name","sysParam.systemType.name"
"Yes","true",,,,,"enableProvisioningWarnings","RadiantoneFIDConnector"
"No","false",,,,,"enableProvisioningWarnings","RadiantoneFIDConnector"
