"systemTypes","11/26/19 11:35 PM"
"name","description","longDesc","provisioning","createdBy","creationDate","lastUpdateDate","lastUpdatedBy","connectorTypes.connectorType","systems(systems).name","status.id"
"RadiantoneFIDConnector","RadiantoneFIDConnector","RadiantoneFIDConnector","1","-1",,,,"RadiantoneFIDConnector","Physical","302"
