"systemTypeAttribute","11/26/19 11:35 PM"
"systemType.name","systemTypeAttribute","application.applName","visible"
"RadiantoneFIDConnector","provCheckPanel","AlertAccess","1"
"RadiantoneFIDConnector","roleMgmtCheckPanel","AlertAccess","1"
"RadiantoneFIDConnector","onOffCheckPanel","AlertAccess","1"
"RadiantoneFIDConnector","allowModifyRolesCheckPanel","AlertAccess","1"
"RadiantoneFIDConnector","allowTimeChangesCheckPanel","AlertAccess","1"
"RadiantoneFIDConnector","allowModifyRolesCheckPanel","All","1"
"RadiantoneFIDConnector","allowTimeChangesCheckPanel","All","1"
"RadiantoneFIDConnector","badgeTokenProvSystemCheckPanel","All","1"
"RadiantoneFIDConnector","badgeTokenProvSystemCheckPanel","AlertAccess","1"
"RadiantoneFIDConnector","associateRoleToBadge","All","1"
"RadiantoneFIDConnector","associateRoleToBadge","AlertAccess","1"
"RadiantoneFIDConnector","agentChildConnectorPanel","All","1"
"RadiantoneFIDConnector","agentChildConnectorPanel","AlertAccess","1"
